%YAML 1.1
%TAG !u! tag:unity3d.com,2011:
--- !u!1045 &1
EditorBuildSettings:
  m_ObjectHideFlags: 0
  serializedVersion: 2
  m_Scenes:
  - enabled: 0
    path: 
    guid: 00000000000000000000000000000000
  - enabled: 1
    path: Assets/Scenes/MainMenu.unity
    guid: a5b5f9a47518831478e21c9cbca68fa4
  - enabled: 1
    path: Assets/Scenes/Level1.unity
    guid: f3c4d7257dca8dd4abd7435c468aecc5
  m_configObjects: {}
